{
  "queryUrl": "match_timeline/11868682",
  "doc": [
    {
      "event": "match_timeline",
      "_dob": 1517770880,
      "_maxage": 60,
      "data": {
        "match": {
          "_doc": "match",
          "_id": 11868682,
          "_sid": 1,
          "_seasonid": 41266,
          "_rcid": 1,
          "_tid": 2,
          "_utid": 18,
          "_dt": {
            "_doc": "time",
            "time": "16:00",
            "date": "03/02/18",
            "tz": "CET",
            "tzoffset": 3600,
            "uts": 1517670000
          },
          "round": 30,
          "roundname": {
            "_doc": "tableround",
            "_id": 30,
            "name": 30
          },
          "week": 5,
          "coverage": {},
          "result": {
            "home": 3,
            "away": 2,
            "winner": "home"
          },
          "periods": {
            "p1": {
              "home": 1,
              "away": 0
            },
            "ft": {
              "home": 3,
              "away": 2
            }
          },
          "updated_uts": 1517677311,
          "p": "0",
          "ptime": 1517676882,
          "timeinfo": {
            "injurytime": "5",
            "ended": "1517676882",
            "started": null,
            "played": null,
            "remaining": null,
            "running": false
          },
          "teams": {
            "home": {
              "_doc": "team",
              "_id": 7306474,
              "uid": 40,
              "virtual": false,
              "name": "Aston Villa",
              "mediumname": "Aston Villa",
              "abbr": "AV",
              "iscountry": false
            },
            "away": {
              "_doc": "team",
              "_id": 7333812,
              "uid": 134,
              "virtual": false,
              "name": "Burton",
              "mediumname": "Burton Albion",
              "abbr": "BUR",
              "iscountry": false
            }
          },
          "status": {
            "_doc": "status",
            "_id": 100,
            "name": "Ended"
          },
          "removed": false,
          "facts": true,
          "stadiumid": 815,
          "localderby": true,
          "distance": 39,
          "weather": 2,
          "pitchcondition": 2,
          "temperature": null,
          "wind": null,
          "windadvantage": 0,
          "matchstatus": "result",
          "hf": 3,
          "periodlength": 45,
          "numberofperiods": 2,
          "overtimelength": 15,
          "tobeannounced": false,
          "cards": {
            "home": {
              "yellow_count": 3,
              "red_count": 0
            },
            "away": {
              "yellow_count": 4,
              "red_count": 0
            }
          }
        },
        "events": [
          {
            "_doc": "event",
            "_id": 386154879,
            "_scoutid": "1308938857-1181",
            "_sid": 1,
            "_rcid": 1,
            "_tid": 2,
            "_dc": false,
            "_typeid": "1181",
            "uts": 1517669839,
            "updated_uts": 1517669839,
            "type": "players_on_pitch",
            "matchid": 11868682,
            "disabled": 0,
            "time": -1,
            "seconds": -1,
            "name": "Players on pitch",
            "injurytime": 0,
            "team": ""
          },
          {
            "_doc": "event",
            "_id": 386155411,
            "_scoutid": "1308940921-1180",
            "_sid": 1,
            "_rcid": 1,
            "_tid": 2,
            "_dc": false,
            "_typeid": "1180",
            "uts": 1517669919,
            "updated_uts": 1517669919,
            "type": "players_warming_up",
            "matchid": 11868682,
            "disabled": 0,
            "time": -1,
            "seconds": -1,
            "name": "Players warming up",
            "injurytime": 0,
            "team": ""
          },
          {
            "_doc": "event",
            "_id": 386155923,
            "_scoutid": "1308942729-1024",
            "_sid": 1,
            "_rcid": 1,
            "_tid": 2,
            "_dc": false,
            "_typeid": "1024",
            "uts": 1517669983,
            "updated_uts": 1517669983,
            "type": "match_about_to_start",
            "matchid": 11868682,
            "disabled": 0,
            "time": -1,
            "seconds": -1,
            "name": "Match about to start",
            "injurytime": 0,
            "team": ""
          },
          {
            "_doc": "event",
            "_id": 386156685,
            "_scoutid": "1308944551-10",
            "_sid": 1,
            "_rcid": 1,
            "_tid": 2,
            "_dc": false,
            "_typeid": "10",
            "uts": 1517670034,
            "updated_uts": 1517670034,
            "type": "match_started",
            "matchid": 11868682,
            "disabled": 0,
            "time": -1,
            "seconds": -1,
            "name": "Started",
            "injurytime": 0,
            "team": "",
            "status": {
              "_doc": "status",
              "_id": 20,
              "name": "Started"
            },
            "result": {
              "home": 0,
              "away": 0
            }
          },
          {
            "_doc": "event",
            "_id": 386156687,
            "_scoutid": null,
            "_sid": 1,
            "_rcid": 1,
            "_tid": 2,
            "_dc": false,
            "_typeid": "24",
            "uts": 1517670034,
            "updated_uts": 1517670034,
            "type": "periodstart",
            "matchid": 11868682,
            "disabled": 0,
            "time": -1,
            "seconds": -1,
            "name": "1st half",
            "injurytime": 0,
            "team": "",
            "period": 1
          },
          {
            "_doc": "event",
            "_id": 386159583,
            "_scoutid": "1308956305-154",
            "_sid": 1,
            "_rcid": 1,
            "_tid": 2,
            "_dc": false,
            "_typeid": "154",
            "uts": 1517670258,
            "updated_uts": 1517670258,
            "type": "corner",
            "matchid": 11868682,
            "disabled": 0,
            "time": 4,
            "seconds": 224,
            "name": "Corner kick",
            "injurytime": 0,
            "team": "home",
            "sideid": false,
            "player": {
              "name": ""
            }
          },
          {
            "_doc": "event",
            "_id": 386163459,
            "_scoutid": "1308977797-154",
            "_sid": 1,
            "_rcid": 1,
            "_tid": 2,
            "_dc": false,
            "_typeid": "154",
            "uts": 1517670577,
            "updated_uts": 1517670577,
            "type": "corner",
            "matchid": 11868682,
            "disabled": 0,
            "time": 10,
            "seconds": 543,
            "name": "Corner kick",
            "injurytime": 0,
            "team": "away",
            "sideid": false,
            "player": {
              "name": ""
            }
          },
          {
            "_doc": "event",
            "_id": 386164609,
            "_scoutid": "1308983917-154",
            "_sid": 1,
            "_rcid": 1,
            "_tid": 2,
            "_dc": false,
            "_typeid": "154",
            "uts": 1517670668,
            "updated_uts": 1517670668,
            "type": "corner",
            "matchid": 11868682,
            "disabled": 0,
            "time": 11,
            "seconds": 634,
            "name": "Corner kick",
            "injurytime": 0,
            "team": "away",
            "sideid": false,
            "player": {
              "name": ""
            }
          },
          {
            "_doc": "event",
            "_id": 386171371,
            "_scoutid": "1309018129-40",
            "_sid": 1,
            "_rcid": 1,
            "_tid": 2,
            "_dc": false,
            "_typeid": "40",
            "uts": 1517671188,
            "updated_uts": 1517671222,
            "type": "card",
            "matchid": 11868682,
            "disabled": 0,
            "time": 20,
            "seconds": -1,
            "name": "Yellow card",
            "injurytime": 0,
            "team": "home",
            "card": "yellow",
            "player": {
              "_doc": "player",
              "_id": 9127,
              "name": "Snodgrass, Robert",
              "birthdate": {
                "_doc": "time",
                "time": "00:00",
                "date": "07/09/87",
                "tz": "CEST",
                "tzoffset": 7200,
                "uts": 557964000
              },
              "nationality": {
                "_doc": "countrycode",
                "_id": 242,
                "a2": "s",
                "name": "Scotland",
                "a3": "SCO",
                "ioc": "SCO",
                "continentid": 1,
                "continent": "Europe",
                "population": 5400000
              },
              "position": {
                "_type": "M",
                "name": "Midfielder",
                "shortname": "MID",
                "abbr": "M"
              },
              "primarypositiontype": null,
              "haslogo": false
            }
          },
          {
            "_doc": "event",
            "_id": 386174101,
            "_scoutid": "1309032529-154",
            "_sid": 1,
            "_rcid": 1,
            "_tid": 2,
            "_dc": false,
            "_typeid": "154",
            "uts": 1517671433,
            "updated_uts": 1517671433,
            "type": "corner",
            "matchid": 11868682,
            "disabled": 0,
            "time": 24,
            "seconds": 1398,
            "name": "Corner kick",
            "injurytime": 0,
            "team": "home",
            "sideid": false,
            "player": {
              "name": ""
            }
          },
          {
            "_doc": "event",
            "_id": 386175065,
            "_scoutid": "1309038127-154",
            "_sid": 1,
            "_rcid": 1,
            "_tid": 2,
            "_dc": false,
            "_typeid": "154",
            "uts": 1517671524,
            "updated_uts": 1517671524,
            "type": "corner",
            "matchid": 11868682,
            "disabled": 0,
            "time": 25,
            "seconds": 1490,
            "name": "Corner kick",
            "injurytime": 0,
            "team": "home",
            "sideid": false,
            "player": {
              "name": ""
            }
          },
          {
            "_doc": "event",
            "_id": 386177279,
            "_scoutid": null,
            "_sid": 1,
            "_rcid": 1,
            "_tid": 2,
            "_dc": false,
            "_typeid": "60",
            "uts": 1517671728,
            "updated_uts": 1517671728,
            "type": "substitution",
            "matchid": 11868682,
            "disabled": 0,
            "time": 28,
            "seconds": -1,
            "name": "Substitution",
            "injurytime": 0,
            "team": "away",
            "playerout": {
              "_doc": "player",
              "_id": 79694,
              "name": "Flanagan, Tom",
              "birthdate": {
                "_doc": "time",
                "time": "00:00",
                "date": "17/01/92",
                "tz": "CET",
                "tzoffset": 3600,
                "uts": 695602800
              },
              "nationality": {
                "_doc": "countrycode",
                "_id": 241,
                "a2": "n",
                "name": "Northern Ireland",
                "a3": "NIR",
                "ioc": "NIR",
                "continentid": 1,
                "continent": "Europe",
                "population": 1876700
              },
              "secondarynationality": {
                "_doc": "countrycode",
                "_id": 240,
                "a2": "en",
                "name": "England",
                "a3": "ENG",
                "ioc": "ENG",
                "continentid": 1,
                "continent": "Europe",
                "population": 51500000
              },
              "position": {
                "_type": "D",
                "name": "Defender",
                "shortname": "DEF",
                "abbr": "D"
              },
              "primarypositiontype": null,
              "haslogo": false
            },
            "playerin": {
              "_doc": "player",
              "_id": 44177,
              "name": "Murphy, Luke",
              "birthdate": {
                "_doc": "time",
                "time": "00:00",
                "date": "21/10/89",
                "tz": "CET",
                "tzoffset": 3600,
                "uts": 624927600
              },
              "nationality": {
                "_doc": "countrycode",
                "_id": 240,
                "a2": "en",
                "name": "England",
                "a3": "ENG",
                "ioc": "ENG",
                "continentid": 1,
                "continent": "Europe",
                "population": 51500000
              },
              "position": {
                "_type": "M",
                "name": "Midfielder",
                "shortname": "MID",
                "abbr": "M"
              },
              "primarypositiontype": null,
              "haslogo": false
            },
            "shirtnumbers": {
              "in": "7",
              "out": "12"
            }
          },
          {
            "_doc": "event",
            "_id": 386180303,
            "_scoutid": "1309066797-30",
            "_sid": 1,
            "_rcid": 1,
            "_tid": 2,
            "_dc": false,
            "_typeid": "30",
            "uts": 1517672015,
            "updated_uts": 1517672099,
            "type": "goal",
            "matchid": 11868682,
            "disabled": 0,
            "time": 33,
            "seconds": -1,
            "name": "Goal",
            "injurytime": 0,
            "team": "home",
            "positionid": "",
            "goaltypeid": null,
            "result": {
              "home": 1,
              "away": 0
            },
            "scorer": {
              "_doc": "player",
              "_id": 102280,
              "name": "Hogan, Scott",
              "fullname": "Hogan, Scott Andrew",
              "birthdate": {
                "_doc": "time",
                "time": "00:00",
                "date": "13/04/92",
                "tz": "CEST",
                "tzoffset": 7200,
                "uts": 703116000
              },
              "nationality": {
                "_doc": "countrycode",
                "_id": 103,
                "a2": "ie",
                "name": "Ireland",
                "a3": "IRL",
                "ioc": "IRL",
                "continentid": 1,
                "continent": "Europe",
                "population": 4581269
              },
              "secondarynationality": {
                "_doc": "countrycode",
                "_id": 240,
                "a2": "en",
                "name": "England",
                "a3": "ENG",
                "ioc": "ENG",
                "continentid": 1,
                "continent": "Europe",
                "population": 51500000
              },
              "position": {
                "_type": "F",
                "name": "Forward",
                "shortname": "FWD",
                "abbr": "F"
              },
              "primarypositiontype": null,
              "haslogo": false
            },
            "header": false,
            "owngoal": false,
            "penalty": false
          },
          {
            "_doc": "event",
            "_id": 386183789,
            "_scoutid": "1309085597-40",
            "_sid": 1,
            "_rcid": 1,
            "_tid": 2,
            "_dc": false,
            "_typeid": "40",
            "uts": 1517672342,
            "updated_uts": 1517672384,
            "type": "card",
            "matchid": 11868682,
            "disabled": 0,
            "time": 39,
            "seconds": -1,
            "name": "Yellow card",
            "injurytime": 0,
            "team": "away",
            "card": "yellow",
            "player": {
              "_doc": "player",
              "_id": 44177,
              "name": "Murphy, Luke",
              "birthdate": {
                "_doc": "time",
                "time": "00:00",
                "date": "21/10/89",
                "tz": "CET",
                "tzoffset": 3600,
                "uts": 624927600
              },
              "nationality": {
                "_doc": "countrycode",
                "_id": 240,
                "a2": "en",
                "name": "England",
                "a3": "ENG",
                "ioc": "ENG",
                "continentid": 1,
                "continent": "Europe",
                "population": 51500000
              },
              "position": {
                "_type": "M",
                "name": "Midfielder",
                "shortname": "MID",
                "abbr": "M"
              },
              "primarypositiontype": null,
              "haslogo": false
            }
          },
          {
            "_doc": "event",
            "_id": 386185143,
            "_scoutid": "1309092447-40",
            "_sid": 1,
            "_rcid": 1,
            "_tid": 2,
            "_dc": false,
            "_typeid": "40",
            "uts": 1517672466,
            "updated_uts": 1517672520,
            "type": "card",
            "matchid": 11868682,
            "disabled": 0,
            "time": 41,
            "seconds": -1,
            "name": "Yellow card",
            "injurytime": 0,
            "team": "away",
            "card": "yellow",
            "player": {
              "_doc": "player",
              "_id": 23492,
              "name": "Akins, Lucas",
              "birthdate": {
                "_doc": "time",
                "time": "00:00",
                "date": "25/02/89",
                "tz": "CET",
                "tzoffset": 3600,
                "uts": 604364400
              },
              "nationality": {
                "_doc": "countrycode",
                "_id": 240,
                "a2": "en",
                "name": "England",
                "a3": "ENG",
                "ioc": "ENG",
                "continentid": 1,
                "continent": "Europe",
                "population": 51500000
              },
              "position": {
                "_type": "F",
                "name": "Forward",
                "shortname": "FWD",
                "abbr": "F"
              },
              "primarypositiontype": null,
              "haslogo": false
            }
          },
          {
            "_doc": "event",
            "_id": 386188001,
            "_scoutid": "1309107027-90",
            "_sid": 1,
            "_rcid": 1,
            "_tid": 2,
            "_dc": false,
            "_typeid": "90",
            "uts": 1517672753,
            "updated_uts": 1517672753,
            "type": "injurytimeshown",
            "matchid": 11868682,
            "disabled": 0,
            "time": 45,
            "seconds": 2700,
            "name": "Injury time",
            "injurytime": 1,
            "team": "",
            "period": "6",
            "minutes": "3",
            "periodname": "1st half"
          },
          {
            "_doc": "event",
            "_id": 386188399,
            "_scoutid": "1309108631-154",
            "_sid": 1,
            "_rcid": 1,
            "_tid": 2,
            "_dc": false,
            "_typeid": "154",
            "uts": 1517672790,
            "updated_uts": 1517672790,
            "type": "corner",
            "matchid": 11868682,
            "disabled": 0,
            "time": 45,
            "seconds": 2700,
            "name": "Corner kick",
            "injurytime": 1,
            "team": "home",
            "sideid": false,
            "player": {
              "name": ""
            }
          },
          {
            "_doc": "event",
            "_id": 386189427,
            "_scoutid": null,
            "_sid": 1,
            "_rcid": 1,
            "_tid": 2,
            "_dc": false,
            "_typeid": "24",
            "uts": 1517672905,
            "updated_uts": 1517672905,
            "type": "periodstart",
            "matchid": 11868682,
            "disabled": 0,
            "time": -1,
            "seconds": -1,
            "name": "Halftime",
            "injurytime": 0,
            "team": "",
            "period": 31
          },
          {
            "_doc": "event",
            "_id": 386189425,
            "_scoutid": "1309112961-35",
            "_sid": 1,
            "_rcid": 1,
            "_tid": 2,
            "_dc": false,
            "_typeid": "35",
            "uts": 1517672905,
            "updated_uts": 1517672905,
            "type": "periodscore",
            "matchid": 11868682,
            "disabled": 0,
            "time": -1,
            "seconds": -1,
            "name": "1st half",
            "injurytime": null,
            "team": "",
            "periodscore": {
              "home": 1,
              "away": 0
            },
            "result": {
              "home": 3,
              "away": 2,
              "winner": "home"
            },
            "matchStatus": {
              "_doc": "status",
              "_id": 100,
              "name": "Ended"
            },
            "periodnumber": 1,
            "period": 1,
            "pointtype": "",
            "pointflag": "",
            "pointflagtranslation": ""
          },
          {
            "_doc": "event",
            "_id": 386198087,
            "_scoutid": "1309147643-23",
            "_sid": 1,
            "_rcid": 1,
            "_tid": 2,
            "_dc": false,
            "_typeid": "23",
            "uts": 1517673842,
            "updated_uts": 1517673842,
            "type": "periodstart",
            "matchid": 11868682,
            "disabled": 0,
            "time": -1,
            "seconds": -1,
            "name": "2nd half",
            "injurytime": 0,
            "team": "",
            "period": 2
          },
          {
            "_doc": "event",
            "_id": 386198089,
            "_scoutid": null,
            "_sid": 1,
            "_rcid": 1,
            "_tid": 2,
            "_dc": false,
            "_typeid": "24",
            "uts": 1517673842,
            "updated_uts": 1517673842,
            "type": "periodstart",
            "matchid": 11868682,
            "disabled": 0,
            "time": -1,
            "seconds": -1,
            "name": "2nd half",
            "injurytime": 0,
            "team": "",
            "period": 2
          },
          {
            "_doc": "event",
            "_id": 386199691,
            "_scoutid": null,
            "_sid": 1,
            "_rcid": 1,
            "_tid": 2,
            "_dc": false,
            "_typeid": "60",
            "uts": 1517673988,
            "updated_uts": 1517674000,
            "type": "substitution",
            "matchid": 11868682,
            "disabled": 0,
            "time": 46,
            "seconds": -1,
            "name": "Substitution",
            "injurytime": 0,
            "team": "away",
            "playerout": {
              "_doc": "player",
              "_id": 44177,
              "name": "Murphy, Luke",
              "birthdate": {
                "_doc": "time",
                "time": "00:00",
                "date": "21/10/89",
                "tz": "CET",
                "tzoffset": 3600,
                "uts": 624927600
              },
              "nationality": {
                "_doc": "countrycode",
                "_id": 240,
                "a2": "en",
                "name": "England",
                "a3": "ENG",
                "ioc": "ENG",
                "continentid": 1,
                "continent": "Europe",
                "population": 51500000
              },
              "position": {
                "_type": "M",
                "name": "Midfielder",
                "shortname": "MID",
                "abbr": "M"
              },
              "primarypositiontype": null,
              "haslogo": false
            },
            "playerin": {
              "_doc": "player",
              "_id": 310546,
              "name": "Allen, Jamie",
              "birthdate": {
                "_doc": "time",
                "time": "00:00",
                "date": "29/01/95",
                "tz": "CET",
                "tzoffset": 3600,
                "uts": 791334000
              },
              "nationality": {
                "_doc": "countrycode",
                "_id": 240,
                "a2": "en",
                "name": "England",
                "a3": "ENG",
                "ioc": "ENG",
                "continentid": 1,
                "continent": "Europe",
                "population": 51500000
              },
              "position": {
                "_type": "M",
                "name": "Midfielder",
                "shortname": "MID",
                "abbr": "M"
              },
              "primarypositiontype": null,
              "haslogo": false
            },
            "shirtnumbers": {
              "in": "4",
              "out": "7"
            }
          },
          {
            "_doc": "event",
            "_id": 386198435,
            "_scoutid": "1309149441-154",
            "_sid": 1,
            "_rcid": 1,
            "_tid": 2,
            "_dc": false,
            "_typeid": "154",
            "uts": 1517673876,
            "updated_uts": 1517673876,
            "type": "corner",
            "matchid": 11868682,
            "disabled": 0,
            "time": 46,
            "seconds": 2733,
            "name": "Corner kick",
            "injurytime": 0,
            "team": "home",
            "sideid": false,
            "player": {
              "name": ""
            }
          },
          {
            "_doc": "event",
            "_id": 386200155,
            "_scoutid": "1309158993-154",
            "_sid": 1,
            "_rcid": 1,
            "_tid": 2,
            "_dc": false,
            "_typeid": "154",
            "uts": 1517674038,
            "updated_uts": 1517674038,
            "type": "corner",
            "matchid": 11868682,
            "disabled": 0,
            "time": 49,
            "seconds": 2895,
            "name": "Corner kick",
            "injurytime": 0,
            "team": "home",
            "sideid": false,
            "player": {
              "name": ""
            }
          },
          {
            "_doc": "event",
            "_id": 386202687,
            "_scoutid": "1309171629-40",
            "_sid": 1,
            "_rcid": 1,
            "_tid": 2,
            "_dc": false,
            "_typeid": "40",
            "uts": 1517674242,
            "updated_uts": 1517674377,
            "type": "card",
            "matchid": 11868682,
            "disabled": 0,
            "time": 52,
            "seconds": -1,
            "name": "Yellow card",
            "injurytime": 0,
            "team": "away",
            "card": "yellow",
            "player": {
              "_doc": "player",
              "_id": 129118,
              "name": "McFadzean, Kyle",
              "birthdate": {
                "_doc": "time",
                "time": "00:00",
                "date": "20/02/87",
                "tz": "CET",
                "tzoffset": 3600,
                "uts": 540774000
              },
              "nationality": {
                "_doc": "countrycode",
                "_id": 240,
                "a2": "en",
                "name": "England",
                "a3": "ENG",
                "ioc": "ENG",
                "continentid": 1,
                "continent": "Europe",
                "population": 51500000
              },
              "position": {
                "_type": "D",
                "name": "Defender",
                "shortname": "DEF",
                "abbr": "D"
              },
              "primarypositiontype": null,
              "haslogo": false
            }
          },
          {
            "_doc": "event",
            "_id": 386206885,
            "_scoutid": "1309194243-40",
            "_sid": 1,
            "_rcid": 1,
            "_tid": 2,
            "_dc": false,
            "_typeid": "40",
            "uts": 1517674619,
            "updated_uts": 1517674733,
            "type": "card",
            "matchid": 11868682,
            "disabled": 0,
            "time": 58,
            "seconds": -1,
            "name": "Yellow card",
            "injurytime": 0,
            "team": "away",
            "card": "yellow",
            "player": {
              "_doc": "player",
              "_id": 143895,
              "name": "Naylor, Tom",
              "birthdate": {
                "_doc": "time",
                "time": "00:00",
                "date": "28/06/91",
                "tz": "CEST",
                "tzoffset": 7200,
                "uts": 678060000
              },
              "nationality": {
                "_doc": "countrycode",
                "_id": 240,
                "a2": "en",
                "name": "England",
                "a3": "ENG",
                "ioc": "ENG",
                "continentid": 1,
                "continent": "Europe",
                "population": 51500000
              },
              "position": {
                "_type": "D",
                "name": "Defender",
                "shortname": "DEF",
                "abbr": "D"
              },
              "primarypositiontype": null,
              "haslogo": false
            }
          },
          {
            "_doc": "event",
            "_id": 386211355,
            "_scoutid": "1309219423-30",
            "_sid": 1,
            "_rcid": 1,
            "_tid": 2,
            "_dc": false,
            "_typeid": "30",
            "uts": 1517675034,
            "updated_uts": 1517675097,
            "type": "goal",
            "matchid": 11868682,
            "disabled": 0,
            "time": 65,
            "seconds": 3892,
            "name": "Goal",
            "injurytime": 0,
            "team": "home",
            "positionid": "",
            "goaltypeid": "3",
            "result": {
              "home": 2,
              "away": 0
            },
            "scorer": {
              "_doc": "player",
              "_id": 33102,
              "name": "Adomah, Albert",
              "fullname": "Danquah Adomah, Albert",
              "birthdate": {
                "_doc": "time",
                "time": "00:00",
                "date": "13/12/87",
                "tz": "CET",
                "tzoffset": 3600,
                "uts": 566348400
              },
              "nationality": {
                "_doc": "countrycode",
                "_id": 81,
                "a2": "gh",
                "name": "Ghana",
                "a3": "GHA",
                "ioc": "GHA",
                "continentid": 4,
                "continent": "Africa",
                "population": 22800000
              },
              "secondarynationality": {
                "_doc": "countrycode",
                "_id": 240,
                "a2": "en",
                "name": "England",
                "a3": "ENG",
                "ioc": "ENG",
                "continentid": 1,
                "continent": "Europe",
                "population": 51500000
              },
              "position": {
                "_type": "M",
                "name": "Midfielder",
                "shortname": "MID",
                "abbr": "M"
              },
              "primarypositiontype": null,
              "haslogo": false
            },
            "header": true,
            "owngoal": false,
            "penalty": false
          },
          {
            "_doc": "event",
            "_id": 386213459,
            "_scoutid": null,
            "_sid": 1,
            "_rcid": 1,
            "_tid": 2,
            "_dc": false,
            "_typeid": "60",
            "uts": 1517675218,
            "updated_uts": 1517675218,
            "type": "substitution",
            "matchid": 11868682,
            "disabled": 0,
            "time": 68,
            "seconds": -1,
            "name": "Substitution",
            "injurytime": 0,
            "team": "home",
            "playerout": {
              "_doc": "player",
              "_id": 9127,
              "name": "Snodgrass, Robert",
              "birthdate": {
                "_doc": "time",
                "time": "00:00",
                "date": "07/09/87",
                "tz": "CEST",
                "tzoffset": 7200,
                "uts": 557964000
              },
              "nationality": {
                "_doc": "countrycode",
                "_id": 242,
                "a2": "s",
                "name": "Scotland",
                "a3": "SCO",
                "ioc": "SCO",
                "continentid": 1,
                "continent": "Europe",
                "population": 5400000
              },
              "position": {
                "_type": "M",
                "name": "Midfielder",
                "shortname": "MID",
                "abbr": "M"
              },
              "primarypositiontype": null,
              "haslogo": false
            },
            "playerin": {
              "_doc": "player",
              "_id": 908340,
              "name": "Tuanzebe, Axel",
              "birthdate": {
                "_doc": "time",
                "time": "00:00",
                "date": "14/11/97",
                "tz": "CET",
                "tzoffset": 3600,
                "uts": 879462000
              },
              "nationality": {
                "_doc": "countrycode",
                "_id": 240,
                "a2": "en",
                "name": "England",
                "a3": "ENG",
                "ioc": "ENG",
                "continentid": 1,
                "continent": "Europe",
                "population": 51500000
              },
              "secondarynationality": {
                "_doc": "countrycode",
                "_id": 50,
                "a2": "cd",
                "name": "DR Congo",
                "a3": "COD",
                "ioc": "COD",
                "continentid": 4,
                "continent": "Africa",
                "population": 78736000
              },
              "position": {
                "_type": "D",
                "name": "Defender",
                "shortname": "DEF",
                "abbr": "D"
              },
              "primarypositiontype": null,
              "haslogo": false
            },
            "shirtnumbers": {
              "in": "28",
              "out": "7"
            }
          },
          {
            "_doc": "event",
            "_id": 386216075,
            "_scoutid": null,
            "_sid": 1,
            "_rcid": 1,
            "_tid": 2,
            "_dc": false,
            "_typeid": "60",
            "uts": 1517675453,
            "updated_uts": 1517675453,
            "type": "substitution",
            "matchid": 11868682,
            "disabled": 0,
            "time": 68,
            "seconds": -1,
            "name": "Substitution",
            "injurytime": 0,
            "team": "home",
            "playerout": {
              "_doc": "player",
              "_id": 33102,
              "name": "Adomah, Albert",
              "fullname": "Danquah Adomah, Albert",
              "birthdate": {
                "_doc": "time",
                "time": "00:00",
                "date": "13/12/87",
                "tz": "CET",
                "tzoffset": 3600,
                "uts": 566348400
              },
              "nationality": {
                "_doc": "countrycode",
                "_id": 81,
                "a2": "gh",
                "name": "Ghana",
                "a3": "GHA",
                "ioc": "GHA",
                "continentid": 4,
                "continent": "Africa",
                "population": 22800000
              },
              "secondarynationality": {
                "_doc": "countrycode",
                "_id": 240,
                "a2": "en",
                "name": "England",
                "a3": "ENG",
                "ioc": "ENG",
                "continentid": 1,
                "continent": "Europe",
                "population": 51500000
              },
              "position": {
                "_type": "M",
                "name": "Midfielder",
                "shortname": "MID",
                "abbr": "M"
              },
              "primarypositiontype": null,
              "haslogo": false
            },
            "playerin": {
              "_doc": "player",
              "_id": 361332,
              "name": "Onomah, Josh",
              "fullname": "Onomah, Joshua Oghenetega Peter",
              "birthdate": {
                "_doc": "time",
                "time": "00:00",
                "date": "27/04/97",
                "tz": "CEST",
                "tzoffset": 7200,
                "uts": 862092000
              },
              "nationality": {
                "_doc": "countrycode",
                "_id": 240,
                "a2": "en",
                "name": "England",
                "a3": "ENG",
                "ioc": "ENG",
                "continentid": 1,
                "continent": "Europe",
                "population": 51500000
              },
              "secondarynationality": {
                "_doc": "countrycode",
                "_id": 81,
                "a2": "gh",
                "name": "Ghana",
                "a3": "GHA",
                "ioc": "GHA",
                "continentid": 4,
                "continent": "Africa",
                "population": 22800000
              },
              "position": {
                "_type": "M",
                "name": "Midfielder",
                "shortname": "MID",
                "abbr": "M"
              },
              "primarypositiontype": null,
              "haslogo": false
            },
            "shirtnumbers": {
              "in": "18",
              "out": "37"
            }
          },
          {
            "_doc": "event",
            "_id": 386213917,
            "_scoutid": "1309231715-40",
            "_sid": 1,
            "_rcid": 1,
            "_tid": 2,
            "_dc": false,
            "_typeid": "40",
            "uts": 1517675260,
            "updated_uts": 1517675317,
            "type": "card",
            "matchid": 11868682,
            "disabled": 0,
            "time": 69,
            "seconds": -1,
            "name": "Yellow card",
            "injurytime": 0,
            "team": "home",
            "card": "yellow",
            "player": {
              "_doc": "player",
              "_id": 189061,
              "name": "Grealish, Jack",
              "birthdate": {
                "_doc": "time",
                "time": "00:00",
                "date": "10/09/95",
                "tz": "CEST",
                "tzoffset": 7200,
                "uts": 810684000
              },
              "nationality": {
                "_doc": "countrycode",
                "_id": 240,
                "a2": "en",
                "name": "England",
                "a3": "ENG",
                "ioc": "ENG",
                "continentid": 1,
                "continent": "Europe",
                "population": 51500000
              },
              "secondarynationality": {
                "_doc": "countrycode",
                "_id": 103,
                "a2": "ie",
                "name": "Ireland",
                "a3": "IRL",
                "ioc": "IRL",
                "continentid": 1,
                "continent": "Europe",
                "population": 4581269
              },
              "position": {
                "_type": "M",
                "name": "Midfielder",
                "shortname": "MID",
                "abbr": "M"
              },
              "primarypositiontype": null,
              "haslogo": false
            }
          },
          {
            "_doc": "event",
            "_id": 386214895,
            "_scoutid": "1309235697-154",
            "_sid": 1,
            "_rcid": 1,
            "_tid": 2,
            "_dc": false,
            "_typeid": "154",
            "uts": 1517675348,
            "updated_uts": 1517675348,
            "type": "corner",
            "matchid": 11868682,
            "disabled": 0,
            "time": 71,
            "seconds": 4205,
            "name": "Corner kick",
            "injurytime": 0,
            "team": "away",
            "sideid": false,
            "player": {
              "name": ""
            }
          },
          {
            "_doc": "event",
            "_id": 386215171,
            "_scoutid": "1309237063-30",
            "_sid": 1,
            "_rcid": 1,
            "_tid": 2,
            "_dc": false,
            "_typeid": "30",
            "uts": 1517675374,
            "updated_uts": 1517675419,
            "type": "goal",
            "matchid": 11868682,
            "disabled": 0,
            "time": 71,
            "seconds": 4231,
            "name": "Goal",
            "injurytime": 0,
            "team": "away",
            "positionid": "",
            "goaltypeid": "2",
            "result": {
              "home": 2,
              "away": 1
            },
            "scorer": {
              "_doc": "player",
              "_id": 32787,
              "name": "Elmohamady, Ahmed",
              "fullname": "Mohammedi, Ahmed",
              "birthdate": {
                "_doc": "time",
                "time": "00:00",
                "date": "09/09/87",
                "tz": "CEST",
                "tzoffset": 7200,
                "uts": 558136800
              },
              "nationality": {
                "_doc": "countrycode",
                "_id": 63,
                "a2": "eg",
                "name": "Egypt",
                "a3": "EGY",
                "ioc": "EGY",
                "continentid": 4,
                "continent": "Africa",
                "population": 94666000
              },
              "position": {
                "_type": "M",
                "name": "Midfielder",
                "shortname": "MID",
                "abbr": "M"
              },
              "primarypositiontype": null,
              "haslogo": false
            },
            "header": false,
            "owngoal": true,
            "penalty": false
          },
          {
            "_doc": "event",
            "_id": 386222281,
            "_scoutid": null,
            "_sid": 1,
            "_rcid": 1,
            "_tid": 2,
            "_dc": false,
            "_typeid": "60",
            "uts": 1517676025,
            "updated_uts": 1517676025,
            "type": "substitution",
            "matchid": 11868682,
            "disabled": 0,
            "time": 72,
            "seconds": -1,
            "name": "Substitution",
            "injurytime": 0,
            "team": "away",
            "playerout": {
              "_doc": "player",
              "_id": 15305,
              "name": "Turner, Ben",
              "birthdate": {
                "_doc": "time",
                "time": "00:00",
                "date": "21/01/88",
                "tz": "CET",
                "tzoffset": 3600,
                "uts": 569718000
              },
              "nationality": {
                "_doc": "countrycode",
                "_id": 240,
                "a2": "en",
                "name": "England",
                "a3": "ENG",
                "ioc": "ENG",
                "continentid": 1,
                "continent": "Europe",
                "population": 51500000
              },
              "secondarynationality": {
                "_doc": "countrycode",
                "_id": 243,
                "a2": "w",
                "name": "Wales",
                "a3": "WAL",
                "ioc": "WAL",
                "continentid": 1,
                "continent": "Europe",
                "population": 3092000
              },
              "position": {
                "_type": "D",
                "name": "Defender",
                "shortname": "DEF",
                "abbr": "D"
              },
              "primarypositiontype": null,
              "haslogo": false
            },
            "playerin": {
              "_doc": "player",
              "_id": 77338,
              "name": "Boyce, Liam",
              "birthdate": {
                "_doc": "time",
                "time": "00:00",
                "date": "08/04/91",
                "tz": "CEST",
                "tzoffset": 7200,
                "uts": 671061600
              },
              "nationality": {
                "_doc": "countrycode",
                "_id": 241,
                "a2": "n",
                "name": "Northern Ireland",
                "a3": "NIR",
                "ioc": "NIR",
                "continentid": 1,
                "continent": "Europe",
                "population": 1876700
              },
              "position": {
                "_type": "F",
                "name": "Forward",
                "shortname": "FWD",
                "abbr": "F"
              },
              "primarypositiontype": null,
              "haslogo": false
            },
            "shirtnumbers": {
              "in": "27",
              "out": "6"
            }
          },
          {
            "_doc": "event",
            "_id": 386216727,
            "_scoutid": "1309243063-40",
            "_sid": 1,
            "_rcid": 1,
            "_tid": 2,
            "_dc": false,
            "_typeid": "40",
            "uts": 1517675496,
            "updated_uts": 1517675543,
            "type": "card",
            "matchid": 11868682,
            "disabled": 0,
            "time": 73,
            "seconds": -1,
            "name": "Yellow card",
            "injurytime": 0,
            "team": "home",
            "card": "yellow",
            "player": {
              "_doc": "player",
              "_id": 32787,
              "name": "Elmohamady, Ahmed",
              "fullname": "Mohammedi, Ahmed",
              "birthdate": {
                "_doc": "time",
                "time": "00:00",
                "date": "09/09/87",
                "tz": "CEST",
                "tzoffset": 7200,
                "uts": 558136800
              },
              "nationality": {
                "_doc": "countrycode",
                "_id": 63,
                "a2": "eg",
                "name": "Egypt",
                "a3": "EGY",
                "ioc": "EGY",
                "continentid": 4,
                "continent": "Africa",
                "population": 94666000
              },
              "position": {
                "_type": "M",
                "name": "Midfielder",
                "shortname": "MID",
                "abbr": "M"
              },
              "primarypositiontype": null,
              "haslogo": false
            }
          },
          {
            "_doc": "event",
            "_id": 386217941,
            "_scoutid": "1309247973-154",
            "_sid": 1,
            "_rcid": 1,
            "_tid": 2,
            "_dc": false,
            "_typeid": "154",
            "uts": 1517675599,
            "updated_uts": 1517675599,
            "type": "corner",
            "matchid": 11868682,
            "disabled": 0,
            "time": 75,
            "seconds": 4456,
            "name": "Corner kick",
            "injurytime": 0,
            "team": "home",
            "sideid": false,
            "player": {
              "name": ""
            }
          },
          {
            "_doc": "event",
            "_id": 386220839,
            "_scoutid": "1309261223-154",
            "_sid": 1,
            "_rcid": 1,
            "_tid": 2,
            "_dc": false,
            "_typeid": "154",
            "uts": 1517675885,
            "updated_uts": 1517675885,
            "type": "corner",
            "matchid": 11868682,
            "disabled": 0,
            "time": 80,
            "seconds": 4742,
            "name": "Corner kick",
            "injurytime": 0,
            "team": "away",
            "sideid": false,
            "player": {
              "name": ""
            }
          },
          {
            "_doc": "event",
            "_id": 386223703,
            "_scoutid": null,
            "_sid": 1,
            "_rcid": 1,
            "_tid": 2,
            "_dc": false,
            "_typeid": "60",
            "uts": 1517676174,
            "updated_uts": 1517676174,
            "type": "substitution",
            "matchid": 11868682,
            "disabled": 0,
            "time": 84,
            "seconds": -1,
            "name": "Substitution",
            "injurytime": 0,
            "team": "home",
            "playerout": {
              "_doc": "player",
              "_id": 100574,
              "name": "Hourihane, Conor",
              "birthdate": {
                "_doc": "time",
                "time": "00:00",
                "date": "02/02/91",
                "tz": "CET",
                "tzoffset": 3600,
                "uts": 665449200
              },
              "nationality": {
                "_doc": "countrycode",
                "_id": 103,
                "a2": "ie",
                "name": "Ireland",
                "a3": "IRL",
                "ioc": "IRL",
                "continentid": 1,
                "continent": "Europe",
                "population": 4581269
              },
              "position": {
                "_type": "M",
                "name": "Midfielder",
                "shortname": "MID",
                "abbr": "M"
              },
              "primarypositiontype": null,
              "haslogo": false
            },
            "playerin": {
              "_doc": "player",
              "_id": 24685,
              "name": "Jedinak, Mile",
              "fullname": "Jedinak, Michael John",
              "birthdate": {
                "_doc": "time",
                "time": "00:00",
                "date": "03/08/84",
                "tz": "CEST",
                "tzoffset": 7200,
                "uts": 460332000
              },
              "nationality": {
                "_doc": "countrycode",
                "_id": 13,
                "a2": "au",
                "name": "Australia",
                "a3": "AUS",
                "ioc": "AUS",
                "continentid": 5,
                "continent": "Asia",
                "population": 23900000
              },
              "secondarynationality": {
                "_doc": "countrycode",
                "_id": 54,
                "a2": "hr",
                "name": "Croatia",
                "a3": "HRV",
                "ioc": "CRO",
                "continentid": 1,
                "continent": "Europe",
                "population": 4290612
              },
              "position": {
                "_type": "M",
                "name": "Midfielder",
                "shortname": "MID",
                "abbr": "M"
              },
              "primarypositiontype": null,
              "haslogo": true
            },
            "shirtnumbers": {
              "in": "15",
              "out": "14"
            }
          },
          {
            "_doc": "event",
            "_id": 386225907,
            "_scoutid": "1309283087-30",
            "_sid": 1,
            "_rcid": 1,
            "_tid": 2,
            "_dc": false,
            "_typeid": "30",
            "uts": 1517676384,
            "updated_uts": 1517676449,
            "type": "goal",
            "matchid": 11868682,
            "disabled": 0,
            "time": 88,
            "seconds": 5241,
            "name": "Goal",
            "injurytime": 0,
            "team": "home",
            "positionid": "",
            "goaltypeid": null,
            "result": {
              "home": 3,
              "away": 1
            },
            "scorer": {
              "_doc": "player",
              "_id": 189061,
              "name": "Grealish, Jack",
              "birthdate": {
                "_doc": "time",
                "time": "00:00",
                "date": "10/09/95",
                "tz": "CEST",
                "tzoffset": 7200,
                "uts": 810684000
              },
              "nationality": {
                "_doc": "countrycode",
                "_id": 240,
                "a2": "en",
                "name": "England",
                "a3": "ENG",
                "ioc": "ENG",
                "continentid": 1,
                "continent": "Europe",
                "population": 51500000
              },
              "secondarynationality": {
                "_doc": "countrycode",
                "_id": 103,
                "a2": "ie",
                "name": "Ireland",
                "a3": "IRL",
                "ioc": "IRL",
                "continentid": 1,
                "continent": "Europe",
                "population": 4581269
              },
              "position": {
                "_type": "M",
                "name": "Midfielder",
                "shortname": "MID",
                "abbr": "M"
              },
              "primarypositiontype": null,
              "haslogo": false
            },
            "header": false,
            "owngoal": false,
            "penalty": false
          },
          {
            "_doc": "event",
            "_id": 386227607,
            "_scoutid": "1309289803-90",
            "_sid": 1,
            "_rcid": 1,
            "_tid": 2,
            "_dc": false,
            "_typeid": "90",
            "uts": 1517676553,
            "updated_uts": 1517676553,
            "type": "injurytimeshown",
            "matchid": 11868682,
            "disabled": 0,
            "time": 90,
            "seconds": 5400,
            "name": "Injury time",
            "injurytime": 1,
            "team": "",
            "period": "7",
            "minutes": "5",
            "periodname": "2nd half"
          },
          {
            "_doc": "event",
            "_id": 386228023,
            "_scoutid": "1309291705-154",
            "_sid": 1,
            "_rcid": 1,
            "_tid": 2,
            "_dc": false,
            "_typeid": "154",
            "uts": 1517676599,
            "updated_uts": 1517676599,
            "type": "corner",
            "matchid": 11868682,
            "disabled": 0,
            "time": 90,
            "seconds": 5400,
            "name": "Corner kick",
            "injurytime": 1,
            "team": "away",
            "sideid": false,
            "player": {
              "name": ""
            }
          },
          {
            "_doc": "event",
            "_id": 386228601,
            "_scoutid": "1309294195-30",
            "_sid": 1,
            "_rcid": 1,
            "_tid": 2,
            "_dc": false,
            "_typeid": "30",
            "uts": 1517676663,
            "updated_uts": 1517676720,
            "type": "goal",
            "matchid": 11868682,
            "disabled": 0,
            "time": 90,
            "seconds": 5400,
            "name": "Goal",
            "injurytime": 2,
            "team": "away",
            "positionid": "",
            "goaltypeid": null,
            "result": {
              "home": 3,
              "away": 2
            },
            "scorer": {
              "_doc": "player",
              "_id": 77338,
              "name": "Boyce, Liam",
              "birthdate": {
                "_doc": "time",
                "time": "00:00",
                "date": "08/04/91",
                "tz": "CEST",
                "tzoffset": 7200,
                "uts": 671061600
              },
              "nationality": {
                "_doc": "countrycode",
                "_id": 241,
                "a2": "n",
                "name": "Northern Ireland",
                "a3": "NIR",
                "ioc": "NIR",
                "continentid": 1,
                "continent": "Europe",
                "population": 1876700
              },
              "position": {
                "_type": "F",
                "name": "Forward",
                "shortname": "FWD",
                "abbr": "F"
              },
              "primarypositiontype": null,
              "haslogo": false
            },
            "header": false,
            "owngoal": false,
            "penalty": false
          },
          {
            "_doc": "event",
            "_id": 386156849,
            "_scoutid": "1308944875-1103",
            "_sid": 1,
            "_rcid": 1,
            "_tid": 2,
            "_dc": false,
            "_typeid": "1103",
            "uts": 1517670042,
            "updated_uts": 1517676849,
            "type": "matchsituation",
            "matchid": 11868682,
            "disabled": 0,
            "time": 90,
            "seconds": 5400,
            "name": "matchsituation",
            "injurytime": 6,
            "team": "home",
            "situation": "safe"
          },
          {
            "_doc": "event",
            "_id": 386230399,
            "_scoutid": "1309301027-32",
            "_sid": 1,
            "_rcid": 1,
            "_tid": 2,
            "_dc": false,
            "_typeid": "32",
            "uts": 1517676882,
            "updated_uts": 1517676882,
            "type": "periodscore",
            "matchid": 11868682,
            "disabled": 0,
            "time": -1,
            "seconds": -1,
            "name": "Full Time",
            "injurytime": null,
            "team": "",
            "periodscore": {
              "home": 3,
              "away": 2
            },
            "result": {
              "home": 3,
              "away": 2,
              "winner": "home"
            },
            "matchStatus": {
              "_doc": "status",
              "_id": 100,
              "name": "Ended"
            },
            "periodnumber": null,
            "pointtype": "",
            "pointflag": "",
            "pointflagtranslation": ""
          },
          {
            "_doc": "event",
            "_id": 386230403,
            "_scoutid": "1309301027-20",
            "_sid": 1,
            "_rcid": 1,
            "_tid": 2,
            "_dc": false,
            "_typeid": "20",
            "uts": 1517676882,
            "updated_uts": 1517676882,
            "type": "match_ended",
            "matchid": 11868682,
            "disabled": 0,
            "time": -1,
            "seconds": -1,
            "name": "Match end",
            "injurytime": 0,
            "team": "",
            "status": {
              "_doc": "status",
              "_id": 100,
              "name": "Ended"
            },
            "result": {
              "home": 3,
              "away": 2,
              "winner": "home"
            }
          }
        ]
      }
    }
  ]
}